{
  "hash": "96a1bc63f00c95b992ce",
  "version": "5.17.0",
  "publicPath": "/",
  "outputPath": "C:\\xampp\\htdocs\\jobsnew\\public",
  "assetsByChunkName": {
    "/js/app-server": [
      "/js/app-server.js"
    ],
    "/js/app-client": [
      "/js/app-client.js"
    ]
  },
  "assets": [
    {
      "type": "asset",
      "name": "/js/app-server.js",
      "size": 1530304,
      "emitted": false,
      "comparedForEmit": false,
      "cached": true,
      "info": {
        "javascriptModule": false
      },
      "chunkNames": [
        "/js/app-server"
      ],
      "chunkIdHints": [],
      "auxiliaryChunkNames": [],
      "auxiliaryChunkIdHints": [],
      "related": {},
      "chunks": [
        "/js/app-server"
      ],
      "auxiliaryChunks": [],
      "isOverSizeLimit": false
    },
    {
      "type": "asset",
      "name": "/js/app-client.js",
      "size": 1529764,
      "emitted": false,
      "comparedForEmit": false,
      "cached": true,
      "info": {
        "javascriptModule": false
      },
      "chunkNames": [
        "/js/app-client"
      ],
      "chunkIdHints": [],
      "auxiliaryChunkNames": [],
      "auxiliaryChunkIdHints": [],
      "related": {},
      "chunks": [
        "/js/app-client"
      ],
      "auxiliaryChunks": [],
      "isOverSizeLimit": false
    },
    {
      "type": "asset",
      "name": "js/resources_js_components_About_js.js",
      "size": 1374,
      "emitted": false,
      "comparedForEmit": false,
      "cached": true,
      "info": {
        "javascriptModule": false
      },
      "chunkNames": [],
      "chunkIdHints": [],
      "auxiliaryChunkNames": [],
      "auxiliaryChunkIdHints": [],
      "related": {},
      "chunks": [
        "resources_js_components_About_js"
      ],
      "auxiliaryChunks": [],
      "isOverSizeLimit": false
    },
    {
      "type": "asset",
      "name": "js/resources_js_components_Home_js.js",
      "size": 1360,
      "emitted": false,
      "comparedForEmit": false,
      "cached": true,
      "info": {
        "javascriptModule": false
      },
      "chunkNames": [],
      "chunkIdHints": [],
      "auxiliaryChunkNames": [],
      "auxiliaryChunkIdHints": [],
      "related": {},
      "chunks": [
        "resources_js_components_Home_js"
      ],
      "auxiliaryChunks": [],
      "isOverSizeLimit": false
    }
  ],
  "entrypoints": {
    "/js/app-server": {
      "name": "/js/app-server",
      "chunks": [
        "/js/app-server"
      ],
      "assets": [
        {
          "name": "/js/app-server.js"
        }
      ],
      "filteredAssets": 0,
      "assetsSize": null,
      "auxiliaryAssets": [],
      "filteredAuxiliaryAssets": 0,
      "auxiliaryAssetsSize": 0,
      "children": {},
      "childAssets": {},
      "isOverSizeLimit": false
    },
    "/js/app-client": {
      "name": "/js/app-client",
      "chunks": [
        "/js/app-client"
      ],
      "assets": [
        {
          "name": "/js/app-client.js"
        }
      ],
      "filteredAssets": 0,
      "assetsSize": null,
      "auxiliaryAssets": [],
      "filteredAuxiliaryAssets": 0,
      "auxiliaryAssetsSize": 0,
      "children": {},
      "childAssets": {},
      "isOverSizeLimit": false
    }
  },
  "namedChunkGroups": {
    "/js/app-server": {
      "name": "/js/app-server",
      "chunks": [
        "/js/app-server"
      ],
      "assets": [
        {
          "name": "/js/app-server.js"
        }
      ],
      "filteredAssets": 0,
      "assetsSize": null,
      "auxiliaryAssets": [],
      "filteredAuxiliaryAssets": 0,
      "auxiliaryAssetsSize": 0,
      "children": {},
      "childAssets": {},
      "isOverSizeLimit": false
    },
    "/js/app-client": {
      "name": "/js/app-client",
      "chunks": [
        "/js/app-client"
      ],
      "assets": [
        {
          "name": "/js/app-client.js"
        }
      ],
      "filteredAssets": 0,
      "assetsSize": null,
      "auxiliaryAssets": [],
      "filteredAuxiliaryAssets": 0,
      "auxiliaryAssetsSize": 0,
      "children": {},
      "childAssets": {},
      "isOverSizeLimit": false
    }
  },
  "errors": [],
  "errorsCount": 0,
  "warnings": [],
  "warningsCount": 0,
  "children": []
}